{
	"listeners": {"*:80":{"pass":"routes"}},

	"routes": [
		{"match":{"uri":"/static/"}, "action":{"share":"/home/matt/Documents/api_central_auth/static/"}},
		{"action":{"pass":"applications/fastapi"}}
	],
	
	"applications": {
		"fastapi": {
			"type": "python 3.9",
			"path": "/home/matt/Documents/api_central_auth/",
			"home": "/home/matt/Documents/api_central_auth/venv/",
			"module": "asgi",
			"callable": "app"
		}
	}
}
